<svg width='26px' height='26px' viewBox='0 0 26 26' preserveAspectRatio='none' version='1.1' xmlns='http://www.w3.org/2000/svg' xmlns:xlink='http://www.w3.org/1999/xlink'>
    <title>web_checkboxes_off_icon</title>
    <g id='Page-1' stroke='none' stroke-width='1' fill='none' fill-rule='evenodd'>
        <g id='Producte' transform='translate(-340.000000, -528.000000)'>
            <g id='JUSTINMIN-JIM-V9' transform='translate(69.000000, 94.000000)'>
                <g id='GENERIC-Elements-UI' transform='translate(3.000000, 288.000000)'>
                    <g id='Radiobuttons+checkboxes-WEB' transform='translate(189.000000, 120.000000)'>
                        <rect id='Rectangle' stroke='#C4C4C4' stroke-width='2' fill='#FFFFFF' x='80' y='27' width='24' height='24'></rect>
                        <g id='SLICES'></g>
                    </g>
                </g>
            </g>
        </g>
    </g>
</svg>